…
``` r
# read in both data sets

#sec data from knight newhouse
SEC_FB_df <- readxl::read_excel("datasets/Custom_Reporting_data_Sec_FB.xls")
SEC_FB_df
```

    ## # A tibble: 52 × 21
    ##    Data    `IPEDS ID`  Year `NCAA Subdivision` `FBS Conference` `Total Expenses`
    ##    <chr>        <dbl> <dbl> <chr>              <chr>                       <dbl>
    ##  1 Auburn…     100858  2016 Football Bowl Sub… Southeastern Co…        124864399
    ##  2 Auburn…     100858  2017 Football Bowl Sub… Southeastern Co…        132885979
    ##  3 Auburn…     100858  2018 Football Bowl Sub… Southeastern Co…        139798191
    ##  4 Auburn…     100858  2019 Football Bowl Sub… Southeastern Co…        139260711
    ##  5 Louisi…     159391  2016 Football Bowl Sub… Southeastern Co…        123952910
    ##  6 Louisi…     159391  2017 Football Bowl Sub… Southeastern Co…        139139017
    ##  7 Louisi…     159391  2018 Football Bowl Sub… Southeastern Co…        145351316
    ##  8 Louisi…     159391  2019 Football Bowl Sub… Southeastern Co…        157925522
    ##  9 Missis…     176080  2016 Football Bowl Sub… Southeastern Co…         87641937
    ## 10 Missis…     176080  2017 Football Bowl Sub… Southeastern Co…         88138943
    ## # ℹ 42 more rows
    ## # ℹ 15 more variables: Recruiting <dbl>, `Game Expenses and Travel` <dbl>,
    ## #   `Facilities and Equipment` <dbl>, `Coaches Compensation` <dbl>,
    ## #   `Athletic Student Aid` <dbl>,
    ## #   `Corporate Sponsorship, Advertising, Licensing` <dbl>,
    ## #   `NCAA/Conference Distributions, Media Rights, and Post-Season Football` <dbl>,
    ## #   `Ticket Sales` <dbl>, `Institutional/Government Support` <dbl>, …

``` r
#equity in athletics data analysis

Basketball_Data <- read_csv("datasets/Sport_Data_2016_2017_2018_2019.csv")
Basketball_Data
```

    ## # A tibble: 1,900 × 48
    ##    `Survey Year` UNITID `OPE ID` `Institution Name`           `State CD`
    ##            <dbl>  <dbl> <chr>    <chr>                        <chr>     
    ##  1          2016 222178 00353700 Abilene Christian University TX        
    ##  2          2016 100654 00100200 Alabama A & M University     AL        
    ##  3          2016 100724 00100500 Alabama State University     AL        
    ##  4          2016 138716 00154400 Albany State University      GA        
    ##  5          2016 138682 00560100 Albany Technical College     GA        
    ##  6          2016 175342 00239600 Alcorn State University      MS        
    ##  7          2016 156189 00195100 Alice Lloyd College          KY        
    ##  8          2016 217624 00341700 Allen University             SC        
    ##  9          2016 217633 00341800 Anderson University          SC        
    ## 10          2016 138761 00154500 Andrew College               GA        
    ## # ℹ 1,890 more rows
    ## # ℹ 43 more variables: `Classification Name` <dbl>,
    ## #   `Classification Other` <chr>, `Sanction Code` <dbl>, `Sanction Name` <chr>,
    ## #   `Male Undergraduates` <dbl>, `Female Undergraduates` <dbl>,
    ## #   `Total Undergraduates` <dbl>, `Sport Code` <dbl>, `Sport Name` <chr>,
    ## #   `# Participants Men's Team` <dbl>, `# Participants Women's Team` <dbl>,
    ## #   `# Participants Men Coed Team` <lgl>, …

#### To what extent do universities with higher funding levels for sports teams spend less on academic programs compared to universities with lower funding levels for sports teams?

``` r
# arrange by football spending so we can hone in on 3 institutions

SEC_FB_df %>%
  arrange(`Total Football Spending`)
```

    ## # A tibble: 52 × 21
    ##    Data    `IPEDS ID`  Year `NCAA Subdivision` `FBS Conference` `Total Expenses`
    ##    <chr>        <dbl> <dbl> <chr>              <chr>                       <dbl>
    ##  1 Univer…     178396  2016 Football Bowl Sub… Southeastern Co…         94323693
    ##  2 Univer…     178396  2017 Football Bowl Sub… Southeastern Co…        102409131
    ##  3 Univer…     157085  2016 Football Bowl Sub… Southeastern Co…        129873437
    ##  4 Missis…     176080  2016 Football Bowl Sub… Southeastern Co…         87641937
    ##  5 Missis…     176080  2017 Football Bowl Sub… Southeastern Co…         88138943
    ##  6 Missis…     176080  2018 Football Bowl Sub… Southeastern Co…         93573141
    ##  7 Univer…     178396  2018 Football Bowl Sub… Southeastern Co…        109158522
    ##  8 Univer…     178396  2019 Football Bowl Sub… Southeastern Co…        108398447
    ##  9 Missis…     176080  2019 Football Bowl Sub… Southeastern Co…        104198109
    ## 10 Univer…     157085  2017 Football Bowl Sub… Southeastern Co…        128829711
    ## # ℹ 42 more rows
    ## # ℹ 15 more variables: Recruiting <dbl>, `Game Expenses and Travel` <dbl>,
    ## #   `Facilities and Equipment` <dbl>, `Coaches Compensation` <dbl>,
    ## #   `Athletic Student Aid` <dbl>,
    ## #   `Corporate Sponsorship, Advertising, Licensing` <dbl>,
    ## #   `NCAA/Conference Distributions, Media Rights, and Post-Season Football` <dbl>,
    ## #   `Ticket Sales` <dbl>, `Institutional/Government Support` <dbl>, …
…
